{
  "defaultAction": "SCMP_ACT_KILL",
  "architectures": [
    "SCMP_ARCH_X86_64"
  ],
  "syscalls": [
    {
      "names": [
        "accept4",
        "access",
        "arch_prctl",
        "bind",
        "brk",
        "capset",
        "chdir",
        "clone",
        "close",
        "close_range",
        "connect",
        "dup2",
        "epoll_create1",
        "epoll_ctl",
        "epoll_pwait",
        "execve",
        "exit_group",
        "fchdir",
        "fchmodat",
        "fchown",
        "fcntl",
        "fork",
        "fstat",
        "futex",
        "getcwd",
        "getegid",
        "geteuid",
        "getgid",
        "getpeername",
        "getpid",
        "getppid",
        "getrandom",
        "getrlimit",
        "getsockname",
        "getsockopt",
        "gettid",
        "getuid",
        "ioctl",
        "listen",
        "lseek",
        "madvise",
        "mmap",
        "mount",
        "mprotect",
        "munmap",
        "nanosleep",
        "newfstatat",
        "open",
        "openat",
        "openat2",
        "pipe",
        "pipe2",
        "pivot_root",
        "ppoll",
        "prctl",
        "pselect6",
        "read",
        "recvfrom",
        "recvmsg",
        "restart_syscall",
        "rt_sigaction",
        "rt_sigprocmask",
        "rt_sigreturn",
        "sched_getaffinity",
        "sched_yield",
        "seccomp",
        "select",
        "sendmsg",
        "sendto",
        "set_tid_address",
        "setgroups",
        "sethostname",
        "setresgid",
        "setresuid",
        "setsid",
        "setsockopt",
        "shutdown",
        "sigaltstack",
        "socket",
        "socketpair",
        "stat",
        "statx",
        "tgkill",
        "umask",
        "umount2",
        "uname",
        "unlinkat",
        "wait4",
        "write",
        "writev"
      ],
      "action": "SCMP_ACT_ALLOW",
      "args": [],
      "comment": "",
      "includes": {},
      "excludes": {}
    }
  ]
}
